Track Popularity Prediction Report
…
track_genre

The raw dataset takes 1000 samples for each genre, so categories of genre are well balanced.

# A tibble: 114 × 2
   track_genre     n
   <fct>       <int>
 1 acoustic     1000
 2 afrobeat     1000
 3 alt-rock     1000
 4 alternative  1000
 5 ambient      1000
 6 anime        1000
 7 black-metal  1000
 8 bluegrass    1000
 9 blues        1000
10 brazil       1000
# … with 104 more rows
…
